[
  {
    "uuid": "e6465154-7739-4031-82d7-37379191d92b",
    "name": "brandonk",
    "level": 4
  },
  {
    "uuid": "4e345c9c-c520-4f3d-8c55-46b8d7c907ec",
    "name": "faves",
    "level": 4
  },
  {
    "uuid": "5dd84c2b-1a7e-4dc5-b8bc-9ce0b752b683",
    "name": "jlg1000",
    "level": 4
  },
  {
    "uuid": "0e3298b7-991b-4599-b231-1f1bec0ed46c",
    "name": "mr_joseph",
    "level": 4
  }
]