{
  "0e3298b7-991b-4599-b231-1f1bec0ed46c": "mr_joseph",
  "632b8434-7618-499c-a3e7-c29a0a8efe90": "xxtoxicbladesxx",
  "5dd84c2b-1a7e-4dc5-b8bc-9ce0b752b683": "jlg1000",
  "e6465154-7739-4031-82d7-37379191d92b": "brandonk",
  "4e345c9c-c520-4f3d-8c55-46b8d7c907ec": "faves"
}