{
  "ident": "(4e345c9c-c520-4f3d-8c55-46b8d7c907ec|faves)",
  "lastTeleportOrigin": {
    "dim": 0,
    "pitch": 11.25004,
    "yaw": -212.55133,
    "xd": -2503.2767784732464,
    "yd": 42.733766344998536,
    "zd": -418.40662433636834
  },
  "selDim": 0,
  "inventoryGroups": {},
  "activeInventoryGroup": "default",
  "timePlayed": 66415044,
  "firstLogin": "Jan 10, 2016 10:03:26 AM",
  "lastLogin": "Jan 14, 2016 3:12:42 AM",
  "lastLogout": "Jan 14, 2016 3:23:28 AM",
  "namedTimeout": {}
}