{
  "ident": "(e6465154-7739-4031-82d7-37379191d92b|brandonk)",
  "home": {
    "dim": 0,
    "pitch": 6.749935,
    "yaw": -268.9118,
    "xd": -2567.3037392464466,
    "yd": 71.0,
    "zd": -137.04401976180236
  },
  "lastTeleportOrigin": {
    "dim": 0,
    "pitch": 9.749993,
    "yaw": 310.0756,
    "xd": -2616.5084500676935,
    "yd": 13.0,
    "zd": -132.8829935730543
  },
  "selDim": 0,
  "inventoryGroups": {},
  "activeInventoryGroup": "default",
  "timePlayed": 65019795,
  "firstLogin": "Jan 10, 2016 5:42:00 AM",
  "lastLogin": "Jan 13, 2016 1:42:09 PM",
  "lastLogout": "Jan 13, 2016 1:56:31 PM",
  "namedTimeout": {}
}