{
  "id": 1,
  "creator": "mr_joseph",
  "category": "griefing",
  "message": "someone stole my",
  "point": {
    "dim": 0,
    "pitch": 11.40002,
    "yaw": 164.4,
    "xd": -754.1586513403961,
    "yd": 123.86881224806437,
    "zd": -195.19427439262424
  }
}